…
Check for NAs

colSums(is.na(suicide)) # check for NAs

## country    year  deaths 
##       0       0       0

Convert year column to numeric

suicide %>% 
  mutate(year = as.integer(year))

## # A tibble: 5,238 x 3
##    country      year deaths
##    <chr>       <int>  <dbl>
##  1 Afghanistan  1990    703
##  2 Afghanistan  1991    754
##  3 Afghanistan  1992    820
##  4 Afghanistan  1993    894
##  5 Afghanistan  1994    977
##  6 Afghanistan  1995   1050
##  7 Afghanistan  1996   1100
##  8 Afghanistan  1997   1130
##  9 Afghanistan  1998   1170
## 10 Afghanistan  1999   1200
## # … with 5,228 more rows
…
